{
	"credit": "Made with Blockbench",
	"texture_size": [32, 32],
	"textures": {
		"1": "./moneypack",
		"particle": "./moneypack"
	},
	"elements": [
		{
			"from": [0, 0, 1],
			"to": [16, 7, 2],
			"rotation": {"angle": 0, "axis": "y", "origin": [8, 8, 9]},
			"faces": {
				"north": {"uv": [0, 0, 8, 3.5], "texture": "#1"},
				"east": {"uv": [7, 0, 7.5, 3.5], "texture": "#1"},
				"south": {"uv": [0, 0, 8, 3.5], "texture": "#1"},
				"west": {"uv": [0.5, 0, 1, 3.5], "texture": "#1"},
				"up": {"uv": [8, 0.5, 0, 0], "texture": "#1"},
				"down": {"uv": [0, 3, 8, 3.5], "texture": "#1"}
			}
		},
		{
			"from": [0, 0, 14],
			"to": [16, 7, 15],
			"rotation": {"angle": 0, "axis": "y", "origin": [8, 8, 21]},
			"faces": {
				"north": {"uv": [0, 0, 8, 3.5], "texture": "#1"},
				"east": {"uv": [0.5, 0, 1, 3.5], "texture": "#1"},
				"south": {"uv": [0, 0, 8, 3.5], "texture": "#1"},
				"west": {"uv": [7, 0, 7.5, 3.5], "texture": "#1"},
				"up": {"uv": [8, 0.5, 0, 0], "texture": "#1"},
				"down": {"uv": [0, 3, 8, 3.5], "texture": "#1"}
			}
		},
		{
			"from": [2, 0, 2],
			"to": [14, 1, 14],
			"rotation": {"angle": 0, "axis": "y", "origin": [8, 8, 19]},
			"faces": {
				"north": {"uv": [0, 0, 6, 0.5], "texture": "#missing"},
				"east": {"uv": [0, 0, 6, 0.5], "texture": "#missing"},
				"south": {"uv": [0, 0, 6, 0.5], "texture": "#missing"},
				"west": {"uv": [0, 0, 6, 0.5], "texture": "#missing"},
				"up": {"uv": [1.5, 4, 7.5, 10], "texture": "#1"},
				"down": {"uv": [1.5, 4, 7.5, 10], "texture": "#1"}
			}
		},
		{
			"from": [0, 0, 2],
			"to": [2, 7, 14],
			"rotation": {"angle": 0, "axis": "y", "origin": [-5, 8, 19]},
			"faces": {
				"north": {"uv": [0, 0, 1, 3.5], "texture": "#missing"},
				"east": {"uv": [1, 0, 7, 3.5], "texture": "#1"},
				"south": {"uv": [0, 0, 1, 3.5], "texture": "#missing"},
				"west": {"uv": [1, 0, 7, 3.5], "texture": "#1"},
				"up": {"uv": [0, 10, 1, 4], "texture": "#1"},
				"down": {"uv": [0, 4, 1, 10], "texture": "#1"}
			}
		},
		{
			"from": [14, 0, 2],
			"to": [16, 7, 14],
			"rotation": {"angle": 0, "axis": "y", "origin": [9, 8, 19]},
			"faces": {
				"north": {"uv": [0, 0, 1, 3.5], "texture": "#missing"},
				"east": {"uv": [1, 0, 7, 3.5], "texture": "#1"},
				"south": {"uv": [0, 0, 1, 3.5], "texture": "#missing"},
				"west": {"uv": [1, 0, 7, 3.5], "texture": "#1"},
				"up": {"uv": [1, 10, 0, 4], "texture": "#1"},
				"down": {"uv": [1, 4, 0, 10], "texture": "#1"}
			}
		},
		{
			"from": [-2, 0, 3],
			"to": [0, 6, 13],
			"rotation": {"angle": 0, "axis": "y", "origin": [7, 8, 11]},
			"faces": {
				"north": {"uv": [12.5, 0, 13.5, 3], "texture": "#1"},
				"east": {"uv": [8.5, 0, 13.5, 3], "texture": "#1"},
				"south": {"uv": [8.5, 0, 9.5, 3], "texture": "#1"},
				"west": {"uv": [8.5, 0, 13.5, 3], "texture": "#1"},
				"up": {"uv": [8.5, 0, 13.5, 1], "rotation": 90, "texture": "#1"},
				"down": {"uv": [8.5, 0, 13.5, 1], "rotation": 90, "texture": "#1"}
			}
		},
		{
			"from": [16, 0, 3],
			"to": [18, 6, 13],
			"rotation": {"angle": 0, "axis": "y", "origin": [25, 8, 11]},
			"faces": {
				"north": {"uv": [8.5, 0, 9.5, 3], "texture": "#1"},
				"east": {"uv": [8.5, 0, 13.5, 3], "texture": "#1"},
				"south": {"uv": [12.5, 0, 13.5, 3], "texture": "#1"},
				"west": {"uv": [8.5, 0, 13.5, 3], "texture": "#1"},
				"up": {"uv": [8.5, 1, 13.5, 0], "rotation": 90, "texture": "#1"},
				"down": {"uv": [8.5, 1, 13.5, 0], "rotation": 90, "texture": "#1"}
			}
		},
		{
			"from": [1, 6, 1.5],
			"to": [15, 8, 14.5],
			"rotation": {"angle": 22.5, "axis": "x", "origin": [8, 7, 14.5]},
			"faces": {
				"north": {"uv": [8.5, 3.5, 15.5, 4.5], "texture": "#1"},
				"east": {"uv": [8.5, 3.5, 15, 4.5], "texture": "#1"},
				"south": {"uv": [8.5, 3.5, 15.5, 4.5], "texture": "#1"},
				"west": {"uv": [9, 3.5, 15.5, 4.5], "texture": "#1"},
				"up": {"uv": [8.5, 3.5, 15.5, 10], "texture": "#1"},
				"down": {"uv": [8.5, 3.5, 15.5, 10], "texture": "#1"}
			}
		},
		{
			"from": [2, 4, 2],
			"to": [13, 9, 8],
			"rotation": {"angle": 0, "axis": "y", "origin": [10, 12, 15]},
			"faces": {
				"north": {"uv": [6, 10.5, 11.5, 13], "texture": "#1"},
				"east": {"uv": [12, 10.5, 15, 13], "texture": "#1"},
				"south": {"uv": [6, 10.5, 11.5, 13], "texture": "#1"},
				"west": {"uv": [12, 10.5, 15, 13], "texture": "#1"},
				"up": {"uv": [5.5, 13.5, 0, 10.5], "texture": "#1"},
				"down": {"uv": [0, 10.5, 5.5, 13.5], "texture": "#1"}
			}
		},
		{
			"from": [3, 1, 2],
			"to": [14, 6, 8],
			"rotation": {"angle": 0, "axis": "y", "origin": [11, 9, 15]},
			"faces": {
				"north": {"uv": [6, 10.5, 11.5, 13], "texture": "#1"},
				"east": {"uv": [12, 10.5, 15, 13], "texture": "#1"},
				"south": {"uv": [6, 10.5, 11.5, 13], "texture": "#1"},
				"west": {"uv": [12, 10.5, 15, 13], "texture": "#1"},
				"up": {"uv": [5.5, 13.5, 0, 10.5], "texture": "#1"},
				"down": {"uv": [0, 10.5, 5.5, 13.5], "texture": "#1"}
			}
		},
		{
			"from": [3, 3, 7],
			"to": [14, 8, 13],
			"rotation": {"angle": 0, "axis": "y", "origin": [11, 11, 20]},
			"faces": {
				"north": {"uv": [6, 10.5, 11.5, 13], "texture": "#1"},
				"east": {"uv": [12, 10.5, 15, 13], "texture": "#1"},
				"south": {"uv": [6, 10.5, 11.5, 13], "texture": "#1"},
				"west": {"uv": [12, 10.5, 15, 13], "texture": "#1"},
				"up": {"uv": [5.5, 13.5, 0, 10.5], "texture": "#1"},
				"down": {"uv": [0, 10.5, 5.5, 13.5], "texture": "#1"}
			}
		},
		{
			"from": [2, 1, 7],
			"to": [13, 6, 13],
			"rotation": {"angle": 0, "axis": "y", "origin": [10, 9, 20]},
			"faces": {
				"north": {"uv": [6, 10.5, 11.5, 13], "texture": "#1"},
				"east": {"uv": [12, 10.5, 15, 13], "texture": "#1"},
				"south": {"uv": [6, 10.5, 11.5, 13], "texture": "#1"},
				"west": {"uv": [12, 10.5, 15, 13], "texture": "#1"},
				"up": {"uv": [5.5, 13.5, 0, 10.5], "texture": "#1"},
				"down": {"uv": [0, 10.5, 5.5, 13.5], "texture": "#1"}
			}
		}
	],
	"display": {
		"thirdperson_righthand": {
			"rotation": [75, 45, 0],
			"translation": [0, 0.5, 0],
			"scale": [0.375, 0.375, 0.375]
		},
		"thirdperson_lefthand": {
			"rotation": [75, 45, 0],
			"translation": [0, 0.5, 0],
			"scale": [0.375, 0.375, 0.375]
		},
		"firstperson_righthand": {
			"rotation": [0, 135, 0],
			"translation": [0, 3.5, 0],
			"scale": [0.6, 0.6, 0.6]
		},
		"firstperson_lefthand": {
			"rotation": [0, 135, 0],
			"translation": [0, 3.5, 0],
			"scale": [0.6, 0.6, 0.6]
		},
		"ground": {
			"translation": [0, 3, 0],
			"scale": [0.25, 0.25, 0.25]
		},
		"gui": {
			"rotation": [30, 135, 0],
			"translation": [0, 2, 0],
			"scale": [0.7, 0.7, 0.7]
		},
		"head": {
			"translation": [0, 14, 0]
		},
		"fixed": {
			"rotation": [-90, 0, 0],
			"translation": [0, 0, -14],
			"scale": [2, 2, 2]
		}
	},
	"groups": [
		{
			"name": "group",
			"origin": [8, 7, 9],
			"color": 0,
			"children": []
		},
		0,
		1,
		2,
		3,
		4,
		5,
		6,
		7,
		8,
		9,
		10,
		11
	]
}