{
	"credit": "Made with Blockbench",
	"texture_size": [32, 32],
	"textures": {
		"0": "./chorus",
		"1": "./flame_purple",
		"particle": "./chorus"
	},
	"elements": [
		{
			"from": [6, 9, 12],
			"to": [10, 17, 16],
			"rotation": {"angle": 0, "axis": "x", "origin": [8, 9, 12]},
			"faces": {
				"north": {"uv": [8, 8.5, 6, 12.5], "rotation": 180, "texture": "#0"},
				"east": {"uv": [0, 12.5, 4, 14.5], "rotation": 270, "texture": "#0"},
				"south": {"uv": [6, 12.5, 4, 8.5], "texture": "#0"},
				"west": {"uv": [6, 12.5, 10, 14.5], "rotation": 90, "texture": "#0"},
				"up": {"uv": [4, 12.5, 6, 14.5], "rotation": 180, "texture": "#0"},
				"down": {"uv": [10, 12.5, 12, 14.5], "texture": "#0"}
			}
		},
		{
			"from": [6, 0, 4],
			"to": [10, 9, 12],
			"rotation": {"angle": 0, "axis": "y", "origin": [8, 1, -3]},
			"faces": {
				"north": {"uv": [4, 4, 6, 8.5], "texture": "#0"},
				"east": {"uv": [0, 4, 4, 8.5], "texture": "#0"},
				"south": {"uv": [10, 4, 12, 8.5], "texture": "#0"},
				"west": {"uv": [6, 4, 10, 8.5], "texture": "#0"},
				"up": {"uv": [6, 4, 4, 0], "texture": "#0"},
				"down": {"uv": [8, 0, 6, 4], "texture": "#0"}
			}
		},
		{
			"from": [7, 10, 6.5],
			"to": [7, 12, 9.5],
			"rotation": {"angle": 0, "axis": "y", "origin": [8, 3, -2.5]},
			"faces": {
				"north": {"uv": [10, 0, 10, 1], "texture": "#0"},
				"east": {"uv": [8.5, 0, 10, 1], "texture": "#0"},
				"south": {"uv": [11.5, 0, 11.5, 1], "texture": "#0"},
				"west": {"uv": [10, 0, 11.5, 1], "texture": "#0"},
				"up": {"uv": [10, 0, 10, -1.5], "texture": "#0"},
				"down": {"uv": [10, -1.5, 10, 0], "texture": "#0"}
			}
		},
		{
			"from": [8, 12.5, 6],
			"to": [8, 16.5, 10],
			"rotation": {"angle": 0, "axis": "y", "origin": [9, 5.5, -3]},
			"faces": {
				"north": {"uv": [2, 0.5, 2, 2.5], "texture": "#1"},
				"east": {"uv": [0, 0, 16, 16], "texture": "#1"},
				"south": {"uv": [4, 0.5, 4, 2.5], "texture": "#1"},
				"west": {"uv": [0, 0, 16, 16], "texture": "#1"},
				"up": {"uv": [2, 0.5, 2, -1.5], "texture": "#1"},
				"down": {"uv": [2, -1.5, 2, 0.5], "texture": "#1"}
			}
		},
		{
			"from": [7.5, 9.5, 7.5],
			"to": [8.5, 12.5, 8.5],
			"rotation": {"angle": 0, "axis": "y", "origin": [9.5, 2.5, -1.5]},
			"faces": {
				"north": {"uv": [0.5, 2, 1, 3.5], "texture": "#0"},
				"east": {"uv": [0, 2, 0.5, 3.5], "texture": "#0"},
				"south": {"uv": [1.5, 2, 2, 3.5], "texture": "#0"},
				"west": {"uv": [1, 2, 1.5, 3.5], "texture": "#0"},
				"up": {"uv": [1, 2, 0.5, 1.5], "texture": "#0"},
				"down": {"uv": [1.5, 1.5, 1, 2], "texture": "#0"}
			}
		},
		{
			"from": [7.5, 10.5, 6],
			"to": [8.5, 11.5, 7],
			"rotation": {"angle": 0, "axis": "y", "origin": [9.5, 2.5, -3]},
			"faces": {
				"north": {"uv": [2.5, 2, 3, 2.5], "texture": "#0"},
				"east": {"uv": [2, 2, 2.5, 2.5], "texture": "#0"},
				"south": {"uv": [3.5, 2, 4, 2.5], "texture": "#0"},
				"west": {"uv": [3, 2, 3.5, 2.5], "texture": "#0"},
				"up": {"uv": [3, 2, 2.5, 1.5], "texture": "#0"},
				"down": {"uv": [3.5, 1.5, 3, 2], "texture": "#0"}
			}
		},
		{
			"from": [9, 10, 6.5],
			"to": [9, 12, 9.5],
			"rotation": {"angle": 0, "axis": "y", "origin": [10, 3, -2.5]},
			"faces": {
				"north": {"uv": [10, 1.5, 10, 2.5], "texture": "#0"},
				"east": {"uv": [8.5, 1.5, 10, 2.5], "texture": "#0"},
				"south": {"uv": [11.5, 1.5, 11.5, 2.5], "texture": "#0"},
				"west": {"uv": [10, 1.5, 11.5, 2.5], "texture": "#0"},
				"up": {"uv": [10, 1.5, 10, 0], "texture": "#0"},
				"down": {"uv": [10, 0, 10, 1.5], "texture": "#0"}
			}
		},
		{
			"from": [7, 10, 6.5],
			"to": [9, 12, 6.5],
			"rotation": {"angle": 0, "axis": "y", "origin": [10, 3, -2.5]},
			"faces": {
				"north": {"uv": [12, 0, 13, 1], "texture": "#0"},
				"east": {"uv": [12, 0, 12, 1], "texture": "#0"},
				"south": {"uv": [13, 0, 14, 1], "texture": "#0"},
				"west": {"uv": [13, 0, 13, 1], "texture": "#0"},
				"up": {"uv": [13, 0, 12, 0], "texture": "#0"},
				"down": {"uv": [14, 0, 13, 0], "texture": "#0"}
			}
		},
		{
			"from": [7, 10, 9.5],
			"to": [9, 12, 9.5],
			"rotation": {"angle": 0, "axis": "y", "origin": [10, 3, 0.5]},
			"faces": {
				"north": {"uv": [12, 1.5, 13, 2.5], "texture": "#0"},
				"east": {"uv": [12, 1.5, 12, 2.5], "texture": "#0"},
				"south": {"uv": [13, 1.5, 14, 2.5], "texture": "#0"},
				"west": {"uv": [13, 1.5, 13, 2.5], "texture": "#0"},
				"up": {"uv": [13, 1.5, 12, 1.5], "texture": "#0"},
				"down": {"uv": [14, 1.5, 13, 1.5], "texture": "#0"}
			}
		},
		{
			"from": [6.5, 9, 5.5],
			"to": [9.5, 10, 10.5],
			"rotation": {"angle": 0, "axis": "y", "origin": [7.5, 2, -3.5]},
			"faces": {
				"north": {"uv": [10.5, 11, 12, 11.5], "texture": "#0"},
				"east": {"uv": [8, 11, 10.5, 11.5], "texture": "#0"},
				"south": {"uv": [14.5, 11, 16, 11.5], "texture": "#0"},
				"west": {"uv": [12, 11, 14.5, 11.5], "texture": "#0"},
				"up": {"uv": [12, 11, 10.5, 8.5], "texture": "#0"},
				"down": {"uv": [13.5, 8.5, 12, 11], "texture": "#0"}
			}
		},
		{
			"from": [6.5, 8.5, 11.5],
			"to": [9.5, 9.5, 12.5],
			"rotation": {"angle": 0, "axis": "y", "origin": [14.5, 16.5, 19.5]},
			"faces": {
				"north": {"uv": [0.5, 0.5, 2, 1], "texture": "#0"},
				"east": {"uv": [0, 0.5, 0.5, 1], "texture": "#0"},
				"south": {"uv": [2.5, 0.5, 4, 1], "texture": "#0"},
				"west": {"uv": [2, 0.5, 2.5, 1], "texture": "#0"},
				"up": {"uv": [2, 0.5, 0.5, 0], "texture": "#0"},
				"down": {"uv": [3.5, 0, 2, 0.5], "texture": "#0"}
			}
		}
	],
	"gui_light": "front",
	"display": {
		"thirdperson_righthand": {
			"rotation": [0, 120, 0],
			"translation": [-0.75, 1, 0.75],
			"scale": [0.4, 0.4, 0.4]
		},
		"thirdperson_lefthand": {
			"rotation": [0, 120, 0],
			"translation": [-0.75, 1, 0.75],
			"scale": [0.4, 0.4, 0.4]
		},
		"firstperson_righthand": {
			"rotation": [0, 102, 0],
			"translation": [1.5, 3.5, 0],
			"scale": [0.4, 0.4, 0.4]
		},
		"firstperson_lefthand": {
			"rotation": [0, 102, 0],
			"translation": [1.5, 3.5, 0],
			"scale": [0.4, 0.4, 0.4]
		},
		"ground": {
			"translation": [0, 4.5, 0],
			"scale": [0.25, 0.25, 0.25]
		},
		"gui": {
			"rotation": [15, -119, 0],
			"translation": [0.75, -0.5, 0],
			"scale": [0.8, 0.8, 0.8]
		},
		"head": {
			"rotation": [0, 90, 0],
			"translation": [0, 11.25, 0],
			"scale": [0.6, 0.6, 0.6]
		},
		"fixed": {
			"rotation": [0, 90, 0],
			"translation": [0, -0.25, 0]
		}
	}
}