{
	"credit": "Made with Blockbench",
	"textures": {
		"5": "./sushi",
		"6": "./sushi2",
		"particle": "./sushi"
	},
	"elements": [
		{
			"from": [1.95, 1, 1.75],
			"to": [2.45, 1.5, 15.25],
			"rotation": {"angle": 0, "axis": "y", "origin": [2.2, 1.35, 10.5]},
			"faces": {
				"north": {"uv": [0, 0, 1, 1], "texture": "#6"},
				"east": {"uv": [14, 0, 0, 1], "texture": "#6"},
				"south": {"uv": [13, 0, 14, 1], "texture": "#6"},
				"west": {"uv": [0, 0, 14, 1], "texture": "#6"},
				"up": {"uv": [0, 0, 14, 1], "rotation": 90, "texture": "#6"},
				"down": {"uv": [14, 0, 0, 1], "rotation": 90, "texture": "#6"}
			}
		},
		{
			"from": [2.95, 1.25, 1.75],
			"to": [3.45, 1.75, 15.25],
			"rotation": {"angle": 22.5, "axis": "y", "origin": [3.2, 1.6, 10.5]},
			"faces": {
				"north": {"uv": [0, 0, 1, 1], "texture": "#6"},
				"east": {"uv": [14, 0, 0, 1], "texture": "#6"},
				"south": {"uv": [13, 0, 14, 1], "texture": "#6"},
				"west": {"uv": [0, 0, 14, 1], "texture": "#6"},
				"up": {"uv": [0, 0, 14, 1], "rotation": 90, "texture": "#6"},
				"down": {"uv": [14, 0, 0, 1], "rotation": 90, "texture": "#6"}
			}
		},
		{
			"from": [5.5, 1, 5],
			"to": [7.5, 3, 8],
			"rotation": {"angle": -22.5, "axis": "y", "origin": [5.5, 3, 8.5]},
			"faces": {
				"north": {"uv": [0, 0, 4, 4], "texture": "#5"},
				"east": {"uv": [4, 0, 10, 4], "texture": "#5"},
				"south": {"uv": [0, 0, 4, 4], "texture": "#5"},
				"west": {"uv": [4, 0, 10, 4], "texture": "#5"},
				"up": {"uv": [0, 4, 4, 10], "texture": "#5"},
				"down": {"uv": [0, 4, 4, 10], "texture": "#5"}
			}
		},
		{
			"from": [6, 1.5, 4.9],
			"to": [7, 2.5, 8.1],
			"rotation": {"angle": -22.5, "axis": "y", "origin": [5.5, 3, 8.5]},
			"faces": {
				"north": {"uv": [4, 4, 6, 6], "texture": "#5"},
				"east": {"uv": [10, 4, 4, 6], "texture": "#5"},
				"south": {"uv": [8, 4, 10, 6], "texture": "#5"},
				"west": {"uv": [4, 4, 10, 6], "texture": "#5"},
				"up": {"uv": [4, 4, 10, 6], "rotation": 90, "texture": "#5"},
				"down": {"uv": [4, 4, 10, 6], "rotation": 270, "texture": "#5"}
			}
		},
		{
			"from": [6, 1.5, 8.9],
			"to": [7, 2.5, 12.1],
			"rotation": {"angle": -22.5, "axis": "y", "origin": [5.5, 3, 8.5]},
			"faces": {
				"north": {"uv": [4, 4, 6, 6], "texture": "#5"},
				"east": {"uv": [10, 4, 4, 6], "texture": "#5"},
				"south": {"uv": [8, 4, 10, 6], "texture": "#5"},
				"west": {"uv": [4, 4, 10, 6], "texture": "#5"},
				"up": {"uv": [4, 4, 10, 6], "rotation": 90, "texture": "#5"},
				"down": {"uv": [4, 4, 10, 6], "rotation": 270, "texture": "#5"}
			}
		},
		{
			"from": [5.5, 1, 9],
			"to": [7.5, 3, 12],
			"rotation": {"angle": -22.5, "axis": "y", "origin": [5.5, 3, 8.5]},
			"faces": {
				"north": {"uv": [0, 0, 4, 4], "texture": "#5"},
				"east": {"uv": [4, 0, 10, 4], "texture": "#5"},
				"south": {"uv": [0, 0, 4, 4], "texture": "#5"},
				"west": {"uv": [4, 0, 10, 4], "texture": "#5"},
				"up": {"uv": [0, 4, 4, 10], "texture": "#5"},
				"down": {"uv": [0, 4, 4, 10], "texture": "#5"}
			}
		},
		{
			"from": [8.5, 1, 5],
			"to": [10.5, 3, 8],
			"rotation": {"angle": -22.5, "axis": "y", "origin": [8.5, 3, 8.5]},
			"faces": {
				"north": {"uv": [0, 0, 4, 4], "texture": "#5"},
				"east": {"uv": [4, 0, 10, 4], "texture": "#5"},
				"south": {"uv": [0, 0, 4, 4], "texture": "#5"},
				"west": {"uv": [4, 0, 10, 4], "texture": "#5"},
				"up": {"uv": [0, 4, 4, 10], "texture": "#5"},
				"down": {"uv": [0, 4, 4, 10], "texture": "#5"}
			}
		},
		{
			"from": [9, 1.5, 4.9],
			"to": [10, 2.5, 8.1],
			"rotation": {"angle": -22.5, "axis": "y", "origin": [8.5, 3, 8.5]},
			"faces": {
				"north": {"uv": [4, 4, 6, 6], "texture": "#5"},
				"east": {"uv": [10, 4, 4, 6], "texture": "#5"},
				"south": {"uv": [8, 4, 10, 6], "texture": "#5"},
				"west": {"uv": [4, 4, 10, 6], "texture": "#5"},
				"up": {"uv": [4, 4, 10, 6], "rotation": 90, "texture": "#5"},
				"down": {"uv": [4, 4, 10, 6], "rotation": 270, "texture": "#5"}
			}
		},
		{
			"from": [9, 1.5, 8.9],
			"to": [10, 2.5, 12.1],
			"rotation": {"angle": -22.5, "axis": "y", "origin": [8.5, 3, 8.5]},
			"faces": {
				"north": {"uv": [4, 4, 6, 6], "texture": "#5"},
				"east": {"uv": [10, 4, 4, 6], "texture": "#5"},
				"south": {"uv": [8, 4, 10, 6], "texture": "#5"},
				"west": {"uv": [4, 4, 10, 6], "texture": "#5"},
				"up": {"uv": [4, 4, 10, 6], "rotation": 90, "texture": "#5"},
				"down": {"uv": [4, 4, 10, 6], "rotation": 270, "texture": "#5"}
			}
		},
		{
			"from": [8.5, 1, 9],
			"to": [10.5, 3, 12],
			"rotation": {"angle": -22.5, "axis": "y", "origin": [8.5, 3, 8.5]},
			"faces": {
				"north": {"uv": [0, 0, 4, 4], "texture": "#5"},
				"east": {"uv": [4, 0, 10, 4], "texture": "#5"},
				"south": {"uv": [0, 0, 4, 4], "texture": "#5"},
				"west": {"uv": [4, 0, 10, 4], "texture": "#5"},
				"up": {"uv": [0, 4, 4, 10], "texture": "#5"},
				"down": {"uv": [0, 4, 4, 10], "texture": "#5"}
			}
		},
		{
			"from": [11.5, 1, 5],
			"to": [13.5, 3, 8],
			"rotation": {"angle": -22.5, "axis": "y", "origin": [11.5, 3, 8.5]},
			"faces": {
				"north": {"uv": [0, 0, 4, 4], "texture": "#5"},
				"east": {"uv": [4, 0, 10, 4], "texture": "#5"},
				"south": {"uv": [0, 0, 4, 4], "texture": "#5"},
				"west": {"uv": [4, 0, 10, 4], "texture": "#5"},
				"up": {"uv": [0, 4, 4, 10], "texture": "#5"},
				"down": {"uv": [0, 4, 4, 10], "texture": "#5"}
			}
		},
		{
			"from": [12, 1.5, 4.9],
			"to": [13, 2.5, 8.1],
			"rotation": {"angle": -22.5, "axis": "y", "origin": [11.5, 3, 8.5]},
			"faces": {
				"north": {"uv": [4, 4, 6, 6], "texture": "#5"},
				"east": {"uv": [10, 4, 4, 6], "texture": "#5"},
				"south": {"uv": [8, 4, 10, 6], "texture": "#5"},
				"west": {"uv": [4, 4, 10, 6], "texture": "#5"},
				"up": {"uv": [4, 4, 10, 6], "rotation": 90, "texture": "#5"},
				"down": {"uv": [4, 4, 10, 6], "rotation": 270, "texture": "#5"}
			}
		},
		{
			"from": [12, 1.5, 8.9],
			"to": [13, 2.5, 12.1],
			"rotation": {"angle": -22.5, "axis": "y", "origin": [11.5, 3, 8.5]},
			"faces": {
				"north": {"uv": [4, 4, 6, 6], "texture": "#5"},
				"east": {"uv": [10, 4, 4, 6], "texture": "#5"},
				"south": {"uv": [8, 4, 10, 6], "texture": "#5"},
				"west": {"uv": [4, 4, 10, 6], "texture": "#5"},
				"up": {"uv": [4, 4, 10, 6], "rotation": 90, "texture": "#5"},
				"down": {"uv": [4, 4, 10, 6], "rotation": 270, "texture": "#5"}
			}
		},
		{
			"from": [11.5, 1, 9],
			"to": [13.5, 3, 12],
			"rotation": {"angle": -22.5, "axis": "y", "origin": [11.5, 3, 8.5]},
			"faces": {
				"north": {"uv": [0, 0, 4, 4], "texture": "#5"},
				"east": {"uv": [4, 0, 10, 4], "texture": "#5"},
				"south": {"uv": [0, 0, 4, 4], "texture": "#5"},
				"west": {"uv": [4, 0, 10, 4], "texture": "#5"},
				"up": {"uv": [0, 4, 4, 10], "texture": "#5"},
				"down": {"uv": [0, 4, 4, 10], "texture": "#5"}
			}
		},
		{
			"from": [3, 1, 10],
			"to": [2, 0, 7],
			"rotation": {"angle": 0, "axis": "y", "origin": [11, 9, 18]},
			"faces": {
				"north": {"uv": [2, 4, 3, 5], "texture": "#6"},
				"east": {"uv": [0, 4, 1, 7], "rotation": 270, "texture": "#6"},
				"south": {"uv": [2, 6, 3, 7], "texture": "#6"},
				"west": {"uv": [2, 4, 3, 7], "rotation": 270, "texture": "#6"}
			}
		},
		{
			"from": [1, 0, 4],
			"to": [15, 1, 13],
			"rotation": {"angle": 0, "axis": "y", "origin": [9, 8, 12]},
			"faces": {
				"north": {"uv": [0, 1, 14, 2], "texture": "#6"},
				"east": {"uv": [0, 1, 9, 2], "texture": "#6"},
				"south": {"uv": [0, 1, 14, 2], "texture": "#6"},
				"west": {"uv": [0, 1, 9, 2], "texture": "#6"},
				"up": {"uv": [0, 10, 14, 1], "texture": "#6"},
				"down": {"uv": [0, 1, 14, 10], "texture": "#6"}
			}
		}
	],
	"display": {
		"thirdperson_righthand": {
			"rotation": [75, 45, 0],
			"translation": [-1.5, 2.5, 3.25],
			"scale": [0.375, 0.375, 0.375]
		},
		"thirdperson_lefthand": {
			"rotation": [75, 45, 0],
			"translation": [-1.5, 2.5, 3.25],
			"scale": [0.47, 0.47, 0.47]
		},
		"firstperson_righthand": {
			"rotation": [24, -3, 0],
			"translation": [1.5, 5.75, 2.5],
			"scale": [0.62, 0.62, 0.62]
		},
		"firstperson_lefthand": {
			"rotation": [24, -3, 0],
			"translation": [1.5, 5.75, 2.5],
			"scale": [0.62, 0.62, 0.62]
		},
		"ground": {
			"translation": [0, 3.5, 0],
			"scale": [0.25, 0.25, 0.25]
		},
		"gui": {
			"rotation": [45, 225, 0],
			"translation": [-0.5, 3.75, 0],
			"scale": [0.92, 0.92, 0.92]
		},
		"fixed": {
			"rotation": [-90, 0, 0],
			"translation": [0, -1, -14],
			"scale": [2, 2, 2]
		}
	},
	"groups": [
		{
			"name": "group",
			"origin": [8, 8, 8],
			"color": 0,
			"children": [0, 1]
		},
		{
			"name": "group",
			"origin": [2.5, 8, 7],
			"color": 0,
			"children": [2, 3, 4, 5]
		},
		{
			"name": "group",
			"origin": [2.5, 8, 7],
			"color": 0,
			"children": [6, 7, 8, 9]
		},
		{
			"name": "group",
			"origin": [2.5, 8, 7],
			"color": 0,
			"children": [10, 11, 12, 13]
		},
		{
			"name": "group",
			"origin": [9, 8, 12],
			"color": 0,
			"children": [14, 15]
		}
	]
}