{
	"credit": "Made with Blockbench",
	"textures": {
		"1": "./dark_oak_planks",
		"2": "./gold_block",
		"3": "./pic2",
		"particle": "./pic2"
	},
	"elements": [
		{
			"from": [-12, 0, 0],
			"to": [28, 16, 1],
			"faces": {
				"north": {"uv": [0, 0, 3.2, 1.54], "texture": "#3"},
				"east": {"uv": [0, 0, 1, 16], "texture": "#missing"},
				"south": {"uv": [0, 0, 3.22, 1.53], "texture": "#3"},
				"west": {"uv": [0, 0, 1, 16], "texture": "#missing"},
				"up": {"uv": [0, 0, 16, 1], "texture": "#missing"},
				"down": {"uv": [0, 0, 16, 1], "texture": "#missing"}
			}
		},
		{
			"from": [-12.5, -0.5, -0.3],
			"to": [28.5, 0, 1],
			"faces": {
				"north": {"uv": [0, 0, 16, 0.5], "texture": "#1"},
				"east": {"uv": [0, 0, 1.3, 0.5], "texture": "#1"},
				"south": {"uv": [0, 0, 16, 0.5], "texture": "#1"},
				"west": {"uv": [0, 0, 1.3, 0.5], "texture": "#1"},
				"up": {"uv": [0, 0, 16, 1.3], "texture": "#1"},
				"down": {"uv": [0, 0, 16, 1.3], "texture": "#1"}
			}
		},
		{
			"from": [28, 0, -0.3],
			"to": [28.5, 16, 1],
			"faces": {
				"north": {"uv": [0, 0, 0.5, 16], "texture": "#1"},
				"east": {"uv": [0, 0, 1.3, 16], "texture": "#1"},
				"south": {"uv": [0, 0, 0.5, 16], "texture": "#1"},
				"west": {"uv": [0, 0, 1.3, 16], "texture": "#1"},
				"up": {"uv": [0, 0, 0.5, 1.3], "texture": "#1"},
				"down": {"uv": [0, 0, 0.5, 1.3], "texture": "#1"}
			}
		},
		{
			"from": [27.7, 0, -0.175],
			"to": [28.2, 16, 1.125],
			"faces": {
				"north": {"uv": [0, 0, 0.5, 16], "texture": "#2"},
				"east": {"uv": [0, 0, 1.3, 16], "texture": "#2"},
				"south": {"uv": [0, 0, 0.5, 16], "texture": "#2"},
				"west": {"uv": [0, 0, 1.3, 16], "texture": "#2"},
				"up": {"uv": [0, 0, 0.5, 1.3], "texture": "#2"},
				"down": {"uv": [0, 0, 0.5, 1.3], "texture": "#2"}
			}
		},
		{
			"from": [-12.15, 0, -0.175],
			"to": [-11.65, 16, 1.125],
			"faces": {
				"north": {"uv": [0, 0, 0.5, 16], "texture": "#2"},
				"east": {"uv": [0, 0, 1.3, 16], "texture": "#2"},
				"south": {"uv": [0, 0, 0.5, 16], "texture": "#2"},
				"west": {"uv": [0, 0, 1.3, 16], "texture": "#2"},
				"up": {"uv": [0, 0, 0.5, 1.3], "texture": "#2"},
				"down": {"uv": [0, 0, 0.5, 1.3], "texture": "#2"}
			}
		},
		{
			"from": [-12.15, 15.7, -0.175],
			"to": [28.05, 16, 1.125],
			"faces": {
				"north": {"uv": [0, 0, 16, 0.3], "texture": "#2"},
				"east": {"uv": [0, 0, 1.3, 0.3], "texture": "#2"},
				"south": {"uv": [0, 0, 16, 0.3], "texture": "#2"},
				"west": {"uv": [0, 0, 1.3, 0.3], "texture": "#2"},
				"up": {"uv": [0, 0, 16, 1.3], "texture": "#2"},
				"down": {"uv": [0, 0, 16, 1.3], "texture": "#2"}
			}
		},
		{
			"from": [-12.15, 0, -0.175],
			"to": [28.05, 0.3, 1.125],
			"faces": {
				"north": {"uv": [0, 0, 16, 0.3], "texture": "#2"},
				"east": {"uv": [0, 0, 1.3, 0.3], "texture": "#2"},
				"south": {"uv": [0, 0, 16, 0.3], "texture": "#2"},
				"west": {"uv": [0, 0, 1.3, 0.3], "texture": "#2"},
				"up": {"uv": [0, 0, 16, 1.3], "texture": "#2"},
				"down": {"uv": [0, 0, 16, 1.3], "texture": "#2"}
			}
		},
		{
			"from": [-12.475, 0, -0.3],
			"to": [-11.975, 16, 1],
			"faces": {
				"north": {"uv": [0, 0, 0.5, 16], "texture": "#1"},
				"east": {"uv": [0, 0, 1.3, 16], "texture": "#1"},
				"south": {"uv": [0, 0, 0.5, 16], "texture": "#1"},
				"west": {"uv": [0, 0, 1.3, 16], "texture": "#1"},
				"up": {"uv": [0, 0, 0.5, 1.3], "texture": "#1"},
				"down": {"uv": [0, 0, 0.5, 1.3], "texture": "#1"}
			}
		},
		{
			"from": [-12.5, 16, -0.3],
			"to": [28.5, 16.5, 1],
			"faces": {
				"north": {"uv": [0, 0, 16, 0.5], "texture": "#1"},
				"east": {"uv": [0, 0, 1.3, 0.5], "texture": "#1"},
				"south": {"uv": [0, 0, 16, 0.5], "texture": "#1"},
				"west": {"uv": [0, 0, 1.3, 0.5], "texture": "#1"},
				"up": {"uv": [0, 0, 16, 1.3], "texture": "#1"},
				"down": {"uv": [0, 0, 16, 1.3], "texture": "#1"}
			}
		}
	],
	"display": {
		"thirdperson_righthand": {
			"rotation": [-144.73, 88.59, -160.34],
			"translation": [2.25, -3, -0.25],
			"scale": [0.95313, 0.95313, 0.58789]
		},
		"thirdperson_lefthand": {
			"rotation": [0, 133, 0],
			"translation": [-0.5, 0, -2.25],
			"scale": [0.24, 0.24, 0.24]
		},
		"firstperson_righthand": {
			"rotation": [0, 133, 0],
			"translation": [3.5, 1.5, -2.25],
			"scale": [0.43, 0.43, 0.43]
		},
		"firstperson_lefthand": {
			"rotation": [0, 133, 0],
			"translation": [3.5, 1.5, -2.25],
			"scale": [0.43, 0.43, 0.43]
		},
		"ground": {
			"rotation": [90, 0, 0],
			"translation": [1, -4.75, 1.5],
			"scale": [0.33, 0.33, 0.33]
		},
		"gui": {
			"rotation": [-17, 34, 42],
			"translation": [3.25, 1.5, -2],
			"scale": [0.43, 0.44, 0.74]
		},
		"fixed": {
			"translation": [0, 16, 27.5],
			"scale": [3.77, 3.77, 3.77]
		}
	}
}