{
	"credit": "Made with Blockbench",
	"texture_size": [32, 32],
	"textures": {
		"0": "./pic9",
		"1": "./dark_oak_planks",
		"2": "./gold_block",
		"particle": "./pic9"
	},
	"elements": [
		{
			"from": [-0.4, -3, 24],
			"to": [1, 15, 25],
			"rotation": {"angle": 0, "axis": "y", "origin": [8, 6, 16]},
			"faces": {
				"north": {"uv": [0, 0, 1.4, 16], "rotation": 180, "texture": "#2"},
				"east": {"uv": [0, 0, 16, 1], "rotation": 90, "texture": "#2"},
				"south": {"uv": [0, 0, 1.4, 16], "texture": "#2"},
				"west": {"uv": [0, 0, 16, 1], "rotation": 270, "texture": "#2"},
				"up": {"uv": [0, 0, 1.4, 1], "texture": "#2"},
				"down": {"uv": [0, 0, 1.4, 1], "rotation": 180, "texture": "#2"}
			}
		},
		{
			"from": [-0.7, -3.1, 24.5],
			"to": [1.2, 15.1, 25.1],
			"rotation": {"angle": 0, "axis": "y", "origin": [7.3, 6, 16]},
			"faces": {
				"north": {"uv": [0, 0, 1.9, 16], "rotation": 180, "texture": "#1"},
				"east": {"uv": [0, 0, 16, 0.6], "rotation": 90, "texture": "#1"},
				"south": {"uv": [0, 0, 1.9, 16], "texture": "#1"},
				"west": {"uv": [0, 0, 16, 0.6], "rotation": 270, "texture": "#1"},
				"up": {"uv": [0, 0, 1.9, 0.6], "texture": "#1"},
				"down": {"uv": [0, 0, 1.9, 0.6], "rotation": 180, "texture": "#1"}
			}
		},
		{
			"from": [-0.4, -3, -9],
			"to": [1, 15, -8],
			"rotation": {"angle": 0, "axis": "y", "origin": [8, 6, 15]},
			"faces": {
				"north": {"uv": [0, 0, 1.4, 16], "rotation": 180, "texture": "#2"},
				"east": {"uv": [0, 0, 16, 1], "rotation": 90, "texture": "#2"},
				"south": {"uv": [0, 0, 1.4, 16], "texture": "#2"},
				"west": {"uv": [0, 0, 16, 1], "rotation": 270, "texture": "#2"},
				"up": {"uv": [0, 0, 1.4, 1], "texture": "#2"},
				"down": {"uv": [0, 0, 1.4, 1], "rotation": 180, "texture": "#2"}
			}
		},
		{
			"from": [-0.7, -3.1, -9.1],
			"to": [1.2, 15.1, -8.5],
			"rotation": {"angle": 0, "axis": "y", "origin": [7.3, 6, 15]},
			"faces": {
				"north": {"uv": [0, 0, 1.9, 16], "rotation": 180, "texture": "#1"},
				"east": {"uv": [0, 0, 16, 0.6], "rotation": 90, "texture": "#1"},
				"south": {"uv": [0, 0, 1.9, 16], "texture": "#1"},
				"west": {"uv": [0, 0, 16, 0.6], "rotation": 270, "texture": "#1"},
				"up": {"uv": [0, 0, 1.9, 0.6], "texture": "#1"},
				"down": {"uv": [0, 0, 1.9, 0.6], "rotation": 180, "texture": "#1"}
			}
		},
		{
			"from": [-0.4, -3, -8],
			"to": [1, -2, 24],
			"rotation": {"angle": 0, "axis": "y", "origin": [8, 6, 16]},
			"faces": {
				"north": {"uv": [0, 0, 1.4, 1], "rotation": 180, "texture": "#2"},
				"east": {"uv": [0, 0, 1, 16], "rotation": 90, "texture": "#2"},
				"south": {"uv": [0, 0, 1.4, 1], "texture": "#2"},
				"west": {"uv": [0, 0, 1, 16], "rotation": 270, "texture": "#2"},
				"up": {"uv": [0, 0, 1.4, 16], "texture": "#2"},
				"down": {"uv": [0, 0, 1.4, 16], "rotation": 180, "texture": "#2"}
			}
		},
		{
			"from": [-0.7, -3.1, -8.5],
			"to": [1.2, -2.5, 24.5],
			"rotation": {"angle": 0, "axis": "y", "origin": [7.3, 6, 16]},
			"faces": {
				"north": {"uv": [0, 0, 1.9, 0.6], "rotation": 180, "texture": "#1"},
				"east": {"uv": [0, 0, 0.6, 16], "rotation": 90, "texture": "#1"},
				"south": {"uv": [0, 0, 1.9, 0.6], "texture": "#1"},
				"west": {"uv": [0, 0, 0.6, 16], "rotation": 270, "texture": "#1"},
				"up": {"uv": [0, 0, 1.9, 16], "texture": "#1"},
				"down": {"uv": [0, 0, 1.9, 16], "rotation": 180, "texture": "#1"}
			}
		},
		{
			"from": [-0.4, 14, -8],
			"to": [1, 15, 24],
			"rotation": {"angle": 0, "axis": "y", "origin": [8, 6, 16]},
			"faces": {
				"north": {"uv": [0, 0, 1.4, 1], "rotation": 180, "texture": "#2"},
				"east": {"uv": [0, 0, 1, 16], "rotation": 90, "texture": "#2"},
				"south": {"uv": [0, 0, 1.4, 1], "texture": "#2"},
				"west": {"uv": [0, 0, 1, 16], "rotation": 270, "texture": "#2"},
				"up": {"uv": [0, 0, 1.4, 16], "texture": "#2"},
				"down": {"uv": [0, 0, 1.4, 16], "rotation": 180, "texture": "#2"}
			}
		},
		{
			"from": [-0.7, 14.5, -8.5],
			"to": [1.2, 15.1, 24.5],
			"rotation": {"angle": 0, "axis": "y", "origin": [7.3, 6, 16]},
			"faces": {
				"north": {"uv": [0, 0, 1.9, 0.6], "rotation": 180, "texture": "#1"},
				"east": {"uv": [0, 0, 0.6, 16], "rotation": 90, "texture": "#1"},
				"south": {"uv": [0, 0, 1.9, 0.6], "texture": "#1"},
				"west": {"uv": [0, 0, 0.6, 16], "rotation": 270, "texture": "#1"},
				"up": {"uv": [0, 0, 1.9, 16], "texture": "#1"},
				"down": {"uv": [0, 0, 1.9, 16], "rotation": 180, "texture": "#1"}
			}
		},
		{
			"from": [-0.2, -2, -8],
			"to": [0.9, 14, 24],
			"rotation": {"angle": 0, "axis": "y", "origin": [8, 6, 15]},
			"faces": {
				"north": {"uv": [0, 0, 0, 16], "rotation": 180, "texture": "#missing"},
				"east": {"uv": [0, 0.38, 1.57, 1.25], "texture": "#0"},
				"south": {"uv": [0, 0, 0, 16], "texture": "#missing"},
				"west": {"uv": [0, 0.35, 1.56, 1.25], "texture": "#0"},
				"up": {"uv": [0, 0, 0, 16], "texture": "#missing"},
				"down": {"uv": [0, 0, 0, 16], "rotation": 180, "texture": "#missing"}
			}
		}
	],
	"display": {
		"thirdperson_righthand": {
			"rotation": [52.24, -0.38, -0.49],
			"translation": [0.5, -3.25, 3.25],
			"scale": [0.31055, 1, 1]
		},
		"thirdperson_lefthand": {
			"rotation": [0, 38, 0],
			"translation": [-0.25, 1.25, -2],
			"scale": [-0.24, 0.24, 0.24]
		},
		"firstperson_righthand": {
			"rotation": [0, 38, 0],
			"translation": [1.75, 3, -2],
			"scale": [0.24, 0.24, 0.24]
		},
		"firstperson_lefthand": {
			"rotation": [0, 38, 0],
			"translation": [1.75, 3, -2],
			"scale": [0.24, 0.24, 0.24]
		},
		"ground": {
			"rotation": [0, 0, 90],
			"translation": [1, 0, 0],
			"scale": [0.21, 0.21, 0.21]
		},
		"gui": {
			"rotation": [25, 46, -37],
			"translation": [2.75, -0.75, -2],
			"scale": [0.48, 0.39, 0.47]
		},
		"fixed": {
			"rotation": [0, -90, 0],
			"translation": [-14.5, 3.75, 13.5],
			"scale": [1.78, 1.78, 1.78]
		}
	}
}